model\Task.class
controller\Controller.class
repository\ArrayTaskList.class
services\TasksOperations.class
services\TaskIOService.class
repository\ArrayTaskList$1.class
services\DateService.class
repository\LinkedTaskList.class
services\Notificator.class
repository\LinkedTaskList$Node.class
services\TasksService.class
controller\NewEditController.class
repository\LinkedTaskList$1.class
repository\LinkedTaskList$LinkedTaskListIterator.class
repository\TaskList.class
controller\TaskInfoController.class
view\Main.class
stubs\TaskStub.class
repository\ArrayTaskList$ArrayTaskListIterator.class
