E:\anul3sem2\vvss\midaBun\src\main\java\repository\LinkedTaskList.java
E:\anul3sem2\vvss\midaBun\src\main\java\view\Main.java
E:\anul3sem2\vvss\midaBun\src\main\java\services\DateService.java
E:\anul3sem2\vvss\midaBun\src\main\java\services\TasksOperations.java
E:\anul3sem2\vvss\midaBun\src\main\java\repository\ArrayTaskList.java
E:\anul3sem2\vvss\midaBun\src\main\java\controller\NewEditController.java
E:\anul3sem2\vvss\midaBun\src\main\java\repository\TaskList.java
E:\anul3sem2\vvss\midaBun\src\main\java\stubs\TaskStub.java
E:\anul3sem2\vvss\midaBun\src\main\java\controller\TaskInfoController.java
E:\anul3sem2\vvss\midaBun\src\main\java\services\Notificator.java
E:\anul3sem2\vvss\midaBun\src\main\java\services\TaskIOService.java
E:\anul3sem2\vvss\midaBun\src\main\java\model\Task.java
E:\anul3sem2\vvss\midaBun\src\main\java\controller\Controller.java
E:\anul3sem2\vvss\midaBun\src\main\java\services\TasksService.java
